116.203.93.84:6301:Z6WD7pGGNgTqpCbu
116.203.93.84:6302:Z6WD7pGGNgTqpCbu
116.203.93.84:6303:Z6WD7pGGNgTqpCbu
116.203.93.84:6304:Z6WD7pGGNgTqpCbu
116.203.93.84:6305:Z6WD7pGGNgTqpCbu
116.203.93.84:6306:Z6WD7pGGNgTqpCbu
116.203.93.84:6307:Z6WD7pGGNgTqpCbu
116.203.93.84:6308:Z6WD7pGGNgTqpCbu
116.203.93.84:6309:Z6WD7pGGNgTqpCbu
116.203.93.84:6310:Z6WD7pGGNgTqpCbu
116.203.93.84:6311:Z6WD7pGGNgTqpCbu
116.203.93.84:6312:Z6WD7pGGNgTqpCbu
116.203.93.84:6313:Z6WD7pGGNgTqpCbu
116.203.93.84:6314:Z6WD7pGGNgTqpCbu
116.203.93.84:6315:Z6WD7pGGNgTqpCbu
116.203.93.84:6316:Z6WD7pGGNgTqpCbu
116.203.93.84:6317:Z6WD7pGGNgTqpCbu
116.203.93.84:6318:Z6WD7pGGNgTqpCbu
116.203.93.84:6319:Z6WD7pGGNgTqpCbu
116.203.93.84:6320:Z6WD7pGGNgTqpCbu
116.203.93.84:6321:Z6WD7pGGNgTqpCbu
116.203.93.84:6322:Z6WD7pGGNgTqpCbu
116.203.93.84:6323:Z6WD7pGGNgTqpCbu
116.203.93.84:6324:Z6WD7pGGNgTqpCbu
116.203.93.84:6325:Z6WD7pGGNgTqpCbu
116.203.93.84:6326:Z6WD7pGGNgTqpCbu
116.203.93.84:6327:Z6WD7pGGNgTqpCbu
116.203.93.84:6328:Z6WD7pGGNgTqpCbu
116.203.93.84:6329:Z6WD7pGGNgTqpCbu
116.203.93.84:6330:Z6WD7pGGNgTqpCbu
116.203.93.84:6331:Z6WD7pGGNgTqpCbu
116.203.93.84:6332:Z6WD7pGGNgTqpCbu
116.203.93.84:6333:Z6WD7pGGNgTqpCbu
116.203.93.84:6334:Z6WD7pGGNgTqpCbu
116.203.93.84:6335:Z6WD7pGGNgTqpCbu
116.203.93.84:6336:Z6WD7pGGNgTqpCbu
116.203.93.84:6337:Z6WD7pGGNgTqpCbu
116.203.93.84:6338:Z6WD7pGGNgTqpCbu
116.203.93.84:6339:Z6WD7pGGNgTqpCbu
116.203.93.84:6340:Z6WD7pGGNgTqpCbu
